Action|ProductInventoryID|Name|ProductNum|Sku|QuantityOnHand|ReOrderLevel
u|1|Apple|ap231|ap231|0|
u|2|Strawberry|st3245|st3245|-10|
u|3|Pear|pe3251|st3246|999|
u|4|Grapes|gr987|ap1234|8|
u|5|Cherries|ch1324|ch5115|10|
u|6|Peach|pe5112|pe3251|8|
u|7|Mushroom|mu23157|ki57109|10|
u|8|Pepper|pe97978|st8979|10|
u|9|Asparagus|as897987|pe0978|9|
u|10|Zucchini|zu2797|mu23157|10|
u|11|Beans|be9078|pe97978|10|
u|12|Radish|ra98790|as897987|10|
u|13|Allium|al8907|frt0987|16|
u|14|Alstroemeria|al23490|to09987|10|
u|15|Columbine|co1358|pu789709|7|
u|16|Daylilies|da8979|al8907|10|
u|17|Poppy|po39875|al23490|10|
u|18|Japanese Iris|ja32578|da8979|10|
u|19|Fuschia Daisies|fu23789|po39875|10|
u|20|Kiwi|kw001|kw001|10|
u|21|Lemon|DL001|LM001|0|
u|22|Lime|LI001|LI001|0|
u|23|Starfruit|sf001|sf001|1|
u|24|Grapes|og002|og002|1|
u|25|Edible Arrangements|ear01|ear01|999|
u|26|Bananas|FP12345|SKUBN124|999|
u|27|Merlot|PD123|SKWI122|994|
u|28|Fresh-Cut Roses|FCR122|SKFCR123|992|
u|29|Whole Salted Cashews|WSC123|SKWSC123|996|
u|30|Swiss Cheese|GBS123|SKGBS123|999|
u|31|Pinot Noir|PMAR123|SKPMAR123|997|
u|32|Chardonnay|CEC1233|SKCEC123|997|
u|33|Cabernet Sauvignon|PBCA123|SKBCA1112|2|
u|34|Shiraz|LS122323|SKLS232|997|
u|35|Rose|FVR123|SKFVR123|999|
u|36|Honey Covered Cashews|RP12232|SKRP1234|997|
u|37|English Walnuts|EW1234|SKEW1234|988|
u|38|Georgia Pecans|GP12434|SKGP12323|984|
u|39|Roasted Pistachios|RP231232|SKRP1223|993|
u|40|Roasted Cashews|PN2345|SKU2345|999|
u|41|Shelled Almonds|SA2345|SKUSA2345|999|
u|42|Macadamia Nuts|MN2345|SKUMN2345|999|
u|43|Raw Peanuts|RP2345|SKURP2345|999|
u|44|Hazelnuts|SS2345|SKUSS2345|999|
u|45|Fresh Brazil Nuts|FC2345|SKUFC2345|999|
u|46|Chocolate Covered Almonds|PN2345B|SKUPN2345B|999|
u|47|Honey Roasted Peanuts|MN2345B|SKUMN2345B|999|
u|48|Pinot Grigio|FVP1234|FVPSK1234|999|
u|49|Champagne|FVC3348|FVSPK3348|999|
u|50|Sauvignon Blanc|FVB3489|FVSBK3489|999|
u|51|White Zinfandel|FFZ8918|FFSKV8918|999|
u|52|Zinfandel|FVZ0237|FVZK0237|999|
u|53|Riesling|FVS6578|FVSK6578|999|
u|54|Bleu Cheese|CKB6788|CKBS6788|999|
u|55|Brie|BSK9876|BSKS9876|999|
u|56|Feta|SFF0989|SFFK0989|999|
u|57|Gouda|GJK3567|GJKJ3567|999|
u|58|Havarti|HKL9878|HKLK9878|999|
u|59|Monterey Jack|MJK4563|MJKK4563|999|
u|60|Muenster|MMS2345|MMSK2355|999|
u|61|Parmesan|MPP8214|MPPK8214|999|
u|62|Provolone|PPK1879|PPKK1879|999|
u|63|Smoked Cheddar|SCC1234|SCCK1234|999|
u|64|Cheddar|CDK5432|CDKK5432|999|
u|65|Raspberries|RSS8988|RSSK8988|999|
u|66|Orange|ORR3456|ORRK3456|999|
u|67|Pineapple|PSP6733|PSPK6733|999|
u|68|Mango|MMS8787|MMSK8787|999|
u|69|Carrots|CCK3678|CCKK3678|999|
u|70|Broccoli|BBB7676|BBBK7676|999|
u|71|Blackberries|BBB7777|BBBK7777|999|
u|72|Artichoke|AAK7600|AAKK7600|999|
u|73|Onion|OKR0987|OKRK0987|999|
u|74|Carnations|CCS1789|CCSK1789|999|
u|75|Daisies|DDD3080|DDDK3080|999|
u|76|Floral Arrangement|FFA1290|FFAK1290|999|
u|77|Tulips|FBB4334|FBBK4334|999|
