TagGroupLabel|ControlType|CatalogID|DisplayOrder|TagName|IconPath|TagDisplayOrder|ProductID|CategoryID|CategoryDisplayOrder
Calories|Dropdownlist|1||< 15|||302|81|
Calories|Dropdownlist|1||< 15|||302|83|
Calories|Dropdownlist|1||< 15|||303|81|
Calories|Dropdownlist|1||< 15|||303|83|
Calories|Dropdownlist|1||< 15|||314|81|
Calories|Dropdownlist|1||< 15|||314|83|
Calories|Dropdownlist|1||< 15|||315|81|
Calories|Dropdownlist|1||< 15|||315|83|
Calories|Dropdownlist|1||Between 15 and 50|||304|81|
Calories|Dropdownlist|1||Between 15 and 50|||304|83|
Calories|Dropdownlist|1||Between 15 and 50|||305|81|
Calories|Dropdownlist|1||Between 15 and 50|||305|83|
Calories|Dropdownlist|1||Between 15 and 50|||316|81|
Calories|Dropdownlist|1||Between 15 and 50|||316|83|
Calories|Dropdownlist|1||Between 15 and 50|||317|81|
Calories|Dropdownlist|1||Between 15 and 50|||317|83|
Calories|Dropdownlist|1||> 50|||303|81|
Calories|Dropdownlist|1||> 50|||303|83|
Calories|Dropdownlist|1||> 50|||306|81|
Calories|Dropdownlist|1||> 50|||306|83|
Calories|Dropdownlist|1||> 50|||307|81|
Calories|Dropdownlist|1||> 50|||307|83|
Calories|Dropdownlist|1||> 50|||318|81|
Calories|Dropdownlist|1||> 50|||318|83|
Calories|Dropdownlist|1||> 50|||319|81|
Calories|Dropdownlist|1||> 50|||319|83|
Brands|Dropdownlist|1||Farmer Jims||1|302|81|1
Brands|Dropdownlist|1||Farmer Jims||1|302|83|2
Brands|Dropdownlist|1||Farmer Jims||1|314|81|1
Brands|Dropdownlist|1||Farmer Jims||1|314|83|2
Brands|Dropdownlist|1||Farmer Jims||1|315|81|1
Brands|Dropdownlist|1||Farmer Jims||1|315|83|2
Brands|Dropdownlist|1||Harry & Davids|||303|81|1
Brands|Dropdownlist|1||Harry & Davids|||303|83|2
Brands|Dropdownlist|1||Harry & Davids|||306|81|1
Brands|Dropdownlist|1||Harry & Davids|||306|83|2
Brands|Dropdownlist|1||Harry & Davids|||316|81|1
Brands|Dropdownlist|1||Harry & Davids|||316|83|2
Brands|Dropdownlist|1||Harry & Davids|||317|81|1
Brands|Dropdownlist|1||Harry & Davids|||317|83|2
Brands|Dropdownlist|1||World Market|||304|81|1
Brands|Dropdownlist|1||World Market|||304|83|2
Brands|Dropdownlist|1||World Market|||307|81|1
Brands|Dropdownlist|1||World Market|||307|83|2
Brands|Dropdownlist|1||World Market|||318|81|1
Brands|Dropdownlist|1||World Market|||318|83|2
Brands|Dropdownlist|1||Smuckers|||305|81|1
Brands|Dropdownlist|1||Smuckers|||305|83|2
Brands|Dropdownlist|1||Smuckers|||319|81|1
Brands|Dropdownlist|1||Smuckers|||319|83|2
Special Features|Dropdownlist|1||Locally Grown|||302|81|1
Special Features|Dropdownlist|1||Locally Grown|||302|83|2
Special Features|Dropdownlist|1||Locally Grown|||303|81|1
Special Features|Dropdownlist|1||Locally Grown|||303|83|2
Special Features|Dropdownlist|1||Locally Grown|||314|81|1
Special Features|Dropdownlist|1||Locally Grown|||314|83|2
Special Features|Dropdownlist|1||Locally Grown|||315|81|1
Special Features|Dropdownlist|1||Locally Grown|||315|83|2
Special Features|Dropdownlist|1||USDA|||304|81|1
Special Features|Dropdownlist|1||USDA|||304|83|2
Special Features|Dropdownlist|1||USDA|||305|81|1
Special Features|Dropdownlist|1||USDA|||305|83|2
Special Features|Dropdownlist|1||USDA|||316|81|1
Special Features|Dropdownlist|1||USDA|||316|83|2
Special Features|Dropdownlist|1||USDA|||317|81|1
Special Features|Dropdownlist|1||USDA|||317|83|2
Special Features|Dropdownlist|1||Organic|||306|81|1
Special Features|Dropdownlist|1||Organic|||306|83|2
Special Features|Dropdownlist|1||Organic|||307|81|1
Special Features|Dropdownlist|1||Organic|||307|83|2
Special Features|Dropdownlist|1||Organic|||318|81|1
Special Features|Dropdownlist|1||Organic|||318|83|2
Special Features|Dropdownlist|1||Organic|||319|81|1
Special Features|Dropdownlist|1||Organic|||319|83|2
Color|Dropdownlist|1||Red|||302|81|1
Color|Dropdownlist|1||Red|||302|83|2
Color|Dropdownlist|1||Red|||302|85|3
Color|Dropdownlist|1||Red|||303|81|1
Color|Dropdownlist|1||Red|||303|83|2
Color|Dropdownlist|1||Red|||303|85|3
Color|Dropdownlist|1||Red|||315|81|1
Color|Dropdownlist|1||Red|||315|83|2
Color|Dropdownlist|1||Red|||315|85|3
Color|Dropdownlist|1||Red|||319|81|1
Color|Dropdownlist|1||Red|||319|83|2
Color|Dropdownlist|1||Red|||319|85|3
Color|Dropdownlist|1||Red|||327|81|1
Color|Dropdownlist|1||Red|||327|83|2
Color|Dropdownlist|1||Red|||327|85|3
Color|Dropdownlist|1||Red|||329|81|1
Color|Dropdownlist|1||Red|||329|83|2
Color|Dropdownlist|1||Red|||329|85|3
Color|Dropdownlist|1||Red|||330|81|1
Color|Dropdownlist|1||Red|||330|83|2
Color|Dropdownlist|1||Red|||330|85|3
Color|Dropdownlist|1||Red|||346|81|1
Color|Dropdownlist|1||Red|||346|83|2
Color|Dropdownlist|1||Red|||346|85|3
Color|Dropdownlist|1||Blue||||81|1
Color|Dropdownlist|1||Blue||||83|2
Color|Dropdownlist|1||Blue||||85|3
Color|Dropdownlist|1||White|||307|81|1
Color|Dropdownlist|1||White|||307|83|2
Color|Dropdownlist|1||White|||307|85|3
Color|Dropdownlist|1||White|||326|81|1
Color|Dropdownlist|1||White|||326|83|2
Color|Dropdownlist|1||White|||326|85|3
Color|Dropdownlist|1||White|||327|81|1
Color|Dropdownlist|1||White|||327|83|2
Color|Dropdownlist|1||White|||327|85|3
Color|Dropdownlist|1||White|||329|81|1
Color|Dropdownlist|1||White|||329|83|2
Color|Dropdownlist|1||White|||329|85|3
Color|Dropdownlist|1||White|||330|81|1
Color|Dropdownlist|1||White|||330|83|2
Color|Dropdownlist|1||White|||330|85|3
Color|Dropdownlist|1||White|||346|81|1
Color|Dropdownlist|1||White|||346|83|2
Color|Dropdownlist|1||White|||346|85|3
Color|Dropdownlist|1||Brown|||304|81|1
Color|Dropdownlist|1||Brown|||304|83|2
Color|Dropdownlist|1||Brown|||304|85|3
Color|Dropdownlist|1||Brown|||314|81|1
Color|Dropdownlist|1||Brown|||314|83|2
Color|Dropdownlist|1||Brown|||314|85|3
Color|Dropdownlist|1||Green||||81|1
Color|Dropdownlist|1||Green||||83|2
Color|Dropdownlist|1||Green||||85|3
Color|Dropdownlist|1||Green|||315|81|1
Color|Dropdownlist|1||Green|||315|83|2
Color|Dropdownlist|1||Green|||315|85|3
Color|Dropdownlist|1||Green|||317|81|1
Color|Dropdownlist|1||Green|||317|83|2
Color|Dropdownlist|1||Green|||317|85|3
Color|Dropdownlist|1||Green|||318|81|1
Color|Dropdownlist|1||Green|||318|83|2
Color|Dropdownlist|1||Green|||318|85|3
Color|Dropdownlist|1||Green|||319|81|1
Color|Dropdownlist|1||Green|||319|83|2
Color|Dropdownlist|1||Green|||319|85|3
Color|Dropdownlist|1||Black|||306|81|1
Color|Dropdownlist|1||Black|||306|83|2
Color|Dropdownlist|1||Black|||306|85|3
Color|Dropdownlist|1||Black|||315|81|1
Color|Dropdownlist|1||Black|||315|83|2
Color|Dropdownlist|1||Black|||315|85|3
Color|Dropdownlist|1||Pink||2|326|81|1
Color|Dropdownlist|1||Pink||2|326|83|2
Color|Dropdownlist|1||Pink||2|326|85|3
Color|Dropdownlist|1||Pink||2|327|81|1
Color|Dropdownlist|1||Pink||2|327|83|2
Color|Dropdownlist|1||Pink||2|327|85|3
Color|Dropdownlist|1||Pink||2|328|81|1
Color|Dropdownlist|1||Pink||2|328|83|2
Color|Dropdownlist|1||Pink||2|328|85|3
Color|Dropdownlist|1||Pink||2|329|81|1
Color|Dropdownlist|1||Pink||2|329|83|2
Color|Dropdownlist|1||Pink||2|329|85|3
Color|Dropdownlist|1||Pink||2|346|81|1
Color|Dropdownlist|1||Pink||2|346|83|2
Color|Dropdownlist|1||Pink||2|346|85|3
Color|Dropdownlist|1||Purple||2|327|81|1
Color|Dropdownlist|1||Purple||2|327|83|2
Color|Dropdownlist|1||Purple||2|327|85|3
Color|Dropdownlist|1||Purple||2|328|81|1
Color|Dropdownlist|1||Purple||2|328|83|2
Color|Dropdownlist|1||Purple||2|328|85|3
Color|Dropdownlist|1||Purple||2|329|81|1
Color|Dropdownlist|1||Purple||2|329|83|2
Color|Dropdownlist|1||Purple||2|329|85|3
Color|Dropdownlist|1||Purple||2|332|81|1
Color|Dropdownlist|1||Purple||2|332|83|2
Color|Dropdownlist|1||Purple||2|332|85|3
Color|Dropdownlist|1||Purple||2|333|81|1
Color|Dropdownlist|1||Purple||2|333|83|2
Color|Dropdownlist|1||Purple||2|333|85|3
Price Range|Dropdownlist|1||$1 - $10|||302|81|1
Price Range|Dropdownlist|1||$1 - $10|||302|83|2
Price Range|Dropdownlist|1||$1 - $10|||303|81|1
Price Range|Dropdownlist|1||$1 - $10|||303|83|2
Price Range|Dropdownlist|1||$1 - $10|||304|81|1
Price Range|Dropdownlist|1||$1 - $10|||304|83|2
Price Range|Dropdownlist|1||$1 - $10|||305|81|1
Price Range|Dropdownlist|1||$1 - $10|||305|83|2
Price Range|Dropdownlist|1||$1 - $10|||306|81|1
Price Range|Dropdownlist|1||$1 - $10|||306|83|2
Price Range|Dropdownlist|1||$1 - $10|||307|81|1
Price Range|Dropdownlist|1||$1 - $10|||307|83|2
Price Range|Dropdownlist|1||$1 - $10|||314|81|1
Price Range|Dropdownlist|1||$1 - $10|||314|83|2
Price Range|Dropdownlist|1||$1 - $10|||315|81|1
Price Range|Dropdownlist|1||$1 - $10|||315|83|2
Price Range|Dropdownlist|1||$1 - $10|||316|81|1
Price Range|Dropdownlist|1||$1 - $10|||316|83|2
Price Range|Dropdownlist|1||$1 - $10|||317|81|1
Price Range|Dropdownlist|1||$1 - $10|||317|83|2
Price Range|Dropdownlist|1||$1 - $10|||318|81|1
Price Range|Dropdownlist|1||$1 - $10|||318|83|2
Price Range|Dropdownlist|1||$1 - $10|||319|81|1
Price Range|Dropdownlist|1||$1 - $10|||319|83|2
Price Range|Dropdownlist|1||$10 - $50||||81|1
Price Range|Dropdownlist|1||$10 - $50||||83|2
Price Range|Dropdownlist|1||$50 - $100||||81|1
Price Range|Dropdownlist|1||$50 - $100||||83|2
Family|Dropdownlist|1||Pepper|||314|83|
Family|Dropdownlist|1||Green Leafy|||315|83|
Family|Dropdownlist|1||Condiment|||316|83|
Family|Dropdownlist|1||Starch|||317|83|
Family|Dropdownlist|1||Root|||318|83|
Family|Dropdownlist|1||Bean|||319|83|
Family|Dropdownlist|1||Other||||83|
Specials|Dropdownlist|1||Monthly Specials|||328|86|1
Specials|Dropdownlist|1||Monthly Specials|||328|90|2
Specials|Dropdownlist|1||Monthly Specials|||328|91|8
Specials|Dropdownlist|1||Monthly Specials|||328|92|3
Specials|Dropdownlist|1||Monthly Specials|||328|93|4
Specials|Dropdownlist|1||Monthly Specials|||328|98|5
Specials|Dropdownlist|1||Monthly Specials|||328|100|6
Specials|Dropdownlist|1||Monthly Specials|||328|104|7
Specials|Dropdownlist|1||Monthly Specials|||332|86|1
Specials|Dropdownlist|1||Monthly Specials|||332|90|2
Specials|Dropdownlist|1||Monthly Specials|||332|91|8
Specials|Dropdownlist|1||Monthly Specials|||332|92|3
Specials|Dropdownlist|1||Monthly Specials|||332|93|4
Specials|Dropdownlist|1||Monthly Specials|||332|98|5
Specials|Dropdownlist|1||Monthly Specials|||332|100|6
Specials|Dropdownlist|1||Monthly Specials|||332|104|7
Specials|Dropdownlist|1||Monthly Specials|||333|86|1
Specials|Dropdownlist|1||Monthly Specials|||333|90|2
Specials|Dropdownlist|1||Monthly Specials|||333|91|8
Specials|Dropdownlist|1||Monthly Specials|||333|92|3
Specials|Dropdownlist|1||Monthly Specials|||333|93|4
Specials|Dropdownlist|1||Monthly Specials|||333|98|5
Specials|Dropdownlist|1||Monthly Specials|||333|100|6
Specials|Dropdownlist|1||Monthly Specials|||333|104|7
Specials|Dropdownlist|1||Monthly Specials|||339|86|1
Specials|Dropdownlist|1||Monthly Specials|||339|90|2
Specials|Dropdownlist|1||Monthly Specials|||339|91|8
Specials|Dropdownlist|1||Monthly Specials|||339|92|3
Specials|Dropdownlist|1||Monthly Specials|||339|93|4
Specials|Dropdownlist|1||Monthly Specials|||339|98|5
Specials|Dropdownlist|1||Monthly Specials|||339|100|6
Specials|Dropdownlist|1||Monthly Specials|||339|104|7
Specials|Dropdownlist|1||Monthly Specials|||348|86|1
Specials|Dropdownlist|1||Monthly Specials|||348|90|2
Specials|Dropdownlist|1||Monthly Specials|||348|91|8
Specials|Dropdownlist|1||Monthly Specials|||348|92|3
Specials|Dropdownlist|1||Monthly Specials|||348|93|4
Specials|Dropdownlist|1||Monthly Specials|||348|98|5
Specials|Dropdownlist|1||Monthly Specials|||348|100|6
Specials|Dropdownlist|1||Monthly Specials|||348|104|7
Specials|Dropdownlist|1||Monthly Specials|||356|86|1
Specials|Dropdownlist|1||Monthly Specials|||356|90|2
Specials|Dropdownlist|1||Monthly Specials|||356|91|8
Specials|Dropdownlist|1||Monthly Specials|||356|92|3
Specials|Dropdownlist|1||Monthly Specials|||356|93|4
Specials|Dropdownlist|1||Monthly Specials|||356|98|5
Specials|Dropdownlist|1||Monthly Specials|||356|100|6
Specials|Dropdownlist|1||Monthly Specials|||356|104|7
Specials|Dropdownlist|1||Monthly Specials|||368|86|1
Specials|Dropdownlist|1||Monthly Specials|||368|90|2
Specials|Dropdownlist|1||Monthly Specials|||368|91|8
Specials|Dropdownlist|1||Monthly Specials|||368|92|3
Specials|Dropdownlist|1||Monthly Specials|||368|93|4
Specials|Dropdownlist|1||Monthly Specials|||368|98|5
Specials|Dropdownlist|1||Monthly Specials|||368|100|6
Specials|Dropdownlist|1||Monthly Specials|||368|104|7
Specials|Dropdownlist|1||Monthly Specials|||385|86|1
Specials|Dropdownlist|1||Monthly Specials|||385|90|2
Specials|Dropdownlist|1||Monthly Specials|||385|91|8
Specials|Dropdownlist|1||Monthly Specials|||385|92|3
Specials|Dropdownlist|1||Monthly Specials|||385|93|4
Specials|Dropdownlist|1||Monthly Specials|||385|98|5
Specials|Dropdownlist|1||Monthly Specials|||385|100|6
Specials|Dropdownlist|1||Monthly Specials|||385|104|7
Specials|Dropdownlist|1||Monthly Specials|||388|86|1
Specials|Dropdownlist|1||Monthly Specials|||388|90|2
Specials|Dropdownlist|1||Monthly Specials|||388|91|8
Specials|Dropdownlist|1||Monthly Specials|||388|92|3
Specials|Dropdownlist|1||Monthly Specials|||388|93|4
Specials|Dropdownlist|1||Monthly Specials|||388|98|5
Specials|Dropdownlist|1||Monthly Specials|||388|100|6
Specials|Dropdownlist|1||Monthly Specials|||388|104|7
Specials|Dropdownlist|1||Monthly Specials|||395|86|1
Specials|Dropdownlist|1||Monthly Specials|||395|90|2
Specials|Dropdownlist|1||Monthly Specials|||395|91|8
Specials|Dropdownlist|1||Monthly Specials|||395|92|3
Specials|Dropdownlist|1||Monthly Specials|||395|93|4
Specials|Dropdownlist|1||Monthly Specials|||395|98|5
Specials|Dropdownlist|1||Monthly Specials|||395|100|6
Specials|Dropdownlist|1||Monthly Specials|||395|104|7
Specials|Dropdownlist|1||Wine Specials|||307|86|1
Specials|Dropdownlist|1||Wine Specials|||307|90|2
Specials|Dropdownlist|1||Wine Specials|||307|91|8
Specials|Dropdownlist|1||Wine Specials|||307|92|3
Specials|Dropdownlist|1||Wine Specials|||307|93|4
Specials|Dropdownlist|1||Wine Specials|||307|98|5
Specials|Dropdownlist|1||Wine Specials|||307|100|6
Specials|Dropdownlist|1||Wine Specials|||307|104|7
Specials|Dropdownlist|1||Wine Specials|||341|86|1
Specials|Dropdownlist|1||Wine Specials|||341|90|2
Specials|Dropdownlist|1||Wine Specials|||341|91|8
Specials|Dropdownlist|1||Wine Specials|||341|92|3
Specials|Dropdownlist|1||Wine Specials|||341|93|4
Specials|Dropdownlist|1||Wine Specials|||341|98|5
Specials|Dropdownlist|1||Wine Specials|||341|100|6
Specials|Dropdownlist|1||Wine Specials|||341|104|7
Specials|Dropdownlist|1||Wine Specials|||348|86|1
Specials|Dropdownlist|1||Wine Specials|||348|90|2
Specials|Dropdownlist|1||Wine Specials|||348|91|8
Specials|Dropdownlist|1||Wine Specials|||348|92|3
Specials|Dropdownlist|1||Wine Specials|||348|93|4
Specials|Dropdownlist|1||Wine Specials|||348|98|5
Specials|Dropdownlist|1||Wine Specials|||348|100|6
Specials|Dropdownlist|1||Wine Specials|||348|104|7
Specials|Dropdownlist|1||Wine Specials|||350|86|1
Specials|Dropdownlist|1||Wine Specials|||350|90|2
Specials|Dropdownlist|1||Wine Specials|||350|91|8
Specials|Dropdownlist|1||Wine Specials|||350|92|3
Specials|Dropdownlist|1||Wine Specials|||350|93|4
Specials|Dropdownlist|1||Wine Specials|||350|98|5
Specials|Dropdownlist|1||Wine Specials|||350|100|6
Specials|Dropdownlist|1||Wine Specials|||350|104|7
Specials|Dropdownlist|1||Wine Specials|||351|86|1
Specials|Dropdownlist|1||Wine Specials|||351|90|2
Specials|Dropdownlist|1||Wine Specials|||351|91|8
Specials|Dropdownlist|1||Wine Specials|||351|92|3
Specials|Dropdownlist|1||Wine Specials|||351|93|4
Specials|Dropdownlist|1||Wine Specials|||351|98|5
Specials|Dropdownlist|1||Wine Specials|||351|100|6
Specials|Dropdownlist|1||Wine Specials|||351|104|7
Specials|Dropdownlist|1||Wine Specials|||353|86|1
Specials|Dropdownlist|1||Wine Specials|||353|90|2
Specials|Dropdownlist|1||Wine Specials|||353|91|8
Specials|Dropdownlist|1||Wine Specials|||353|92|3
Specials|Dropdownlist|1||Wine Specials|||353|93|4
Specials|Dropdownlist|1||Wine Specials|||353|98|5
Specials|Dropdownlist|1||Wine Specials|||353|100|6
Specials|Dropdownlist|1||Wine Specials|||353|104|7
Specials|Dropdownlist|1||Wine Specials|||383|86|1
Specials|Dropdownlist|1||Wine Specials|||383|90|2
Specials|Dropdownlist|1||Wine Specials|||383|91|8
Specials|Dropdownlist|1||Wine Specials|||383|92|3
Specials|Dropdownlist|1||Wine Specials|||383|93|4
Specials|Dropdownlist|1||Wine Specials|||383|98|5
Specials|Dropdownlist|1||Wine Specials|||383|100|6
Specials|Dropdownlist|1||Wine Specials|||383|104|7
Specials|Dropdownlist|1||Wine Specials|||390|86|1
Specials|Dropdownlist|1||Wine Specials|||390|90|2
Specials|Dropdownlist|1||Wine Specials|||390|91|8
Specials|Dropdownlist|1||Wine Specials|||390|92|3
Specials|Dropdownlist|1||Wine Specials|||390|93|4
Specials|Dropdownlist|1||Wine Specials|||390|98|5
Specials|Dropdownlist|1||Wine Specials|||390|100|6
Specials|Dropdownlist|1||Wine Specials|||390|104|7
Specials|Dropdownlist|1||Wine Specials|||391|86|1
Specials|Dropdownlist|1||Wine Specials|||391|90|2
Specials|Dropdownlist|1||Wine Specials|||391|91|8
Specials|Dropdownlist|1||Wine Specials|||391|92|3
Specials|Dropdownlist|1||Wine Specials|||391|93|4
Specials|Dropdownlist|1||Wine Specials|||391|98|5
Specials|Dropdownlist|1||Wine Specials|||391|100|6
Specials|Dropdownlist|1||Wine Specials|||391|104|7
Specials|Dropdownlist|1||Wine Specials|||393|86|1
Specials|Dropdownlist|1||Wine Specials|||393|90|2
Specials|Dropdownlist|1||Wine Specials|||393|91|8
Specials|Dropdownlist|1||Wine Specials|||393|92|3
Specials|Dropdownlist|1||Wine Specials|||393|93|4
Specials|Dropdownlist|1||Wine Specials|||393|98|5
Specials|Dropdownlist|1||Wine Specials|||393|100|6
Specials|Dropdownlist|1||Wine Specials|||393|104|7
Specials|Dropdownlist|1||Organic Product Specials|||316|86|1
Specials|Dropdownlist|1||Organic Product Specials|||316|90|2
Specials|Dropdownlist|1||Organic Product Specials|||316|91|8
Specials|Dropdownlist|1||Organic Product Specials|||316|92|3
Specials|Dropdownlist|1||Organic Product Specials|||316|93|4
Specials|Dropdownlist|1||Organic Product Specials|||316|98|5
Specials|Dropdownlist|1||Organic Product Specials|||316|100|6
Specials|Dropdownlist|1||Organic Product Specials|||316|104|7
Specials|Dropdownlist|1||Organic Product Specials|||335|86|1
Specials|Dropdownlist|1||Organic Product Specials|||335|90|2
Specials|Dropdownlist|1||Organic Product Specials|||335|91|8
Specials|Dropdownlist|1||Organic Product Specials|||335|92|3
Specials|Dropdownlist|1||Organic Product Specials|||335|93|4
Specials|Dropdownlist|1||Organic Product Specials|||335|98|5
Specials|Dropdownlist|1||Organic Product Specials|||335|100|6
Specials|Dropdownlist|1||Organic Product Specials|||335|104|7
Specials|Dropdownlist|1||Organic Product Specials|||336|86|1
Specials|Dropdownlist|1||Organic Product Specials|||336|90|2
Specials|Dropdownlist|1||Organic Product Specials|||336|91|8
Specials|Dropdownlist|1||Organic Product Specials|||336|92|3
Specials|Dropdownlist|1||Organic Product Specials|||336|93|4
Specials|Dropdownlist|1||Organic Product Specials|||336|98|5
Specials|Dropdownlist|1||Organic Product Specials|||336|100|6
Specials|Dropdownlist|1||Organic Product Specials|||336|104|7
Specials|Dropdownlist|1||Organic Product Specials|||338|86|1
Specials|Dropdownlist|1||Organic Product Specials|||338|90|2
Specials|Dropdownlist|1||Organic Product Specials|||338|91|8
Specials|Dropdownlist|1||Organic Product Specials|||338|92|3
Specials|Dropdownlist|1||Organic Product Specials|||338|93|4
Specials|Dropdownlist|1||Organic Product Specials|||338|98|5
Specials|Dropdownlist|1||Organic Product Specials|||338|100|6
Specials|Dropdownlist|1||Organic Product Specials|||338|104|7
Specials|Dropdownlist|1||Organic Product Specials|||347|86|1
Specials|Dropdownlist|1||Organic Product Specials|||347|90|2
Specials|Dropdownlist|1||Organic Product Specials|||347|91|8
Specials|Dropdownlist|1||Organic Product Specials|||347|92|3
Specials|Dropdownlist|1||Organic Product Specials|||347|93|4
Specials|Dropdownlist|1||Organic Product Specials|||347|98|5
Specials|Dropdownlist|1||Organic Product Specials|||347|100|6
Specials|Dropdownlist|1||Organic Product Specials|||347|104|7
Specials|Dropdownlist|1||Organic Product Specials|||355|86|1
Specials|Dropdownlist|1||Organic Product Specials|||355|90|2
Specials|Dropdownlist|1||Organic Product Specials|||355|91|8
Specials|Dropdownlist|1||Organic Product Specials|||355|92|3
Specials|Dropdownlist|1||Organic Product Specials|||355|93|4
Specials|Dropdownlist|1||Organic Product Specials|||355|98|5
Specials|Dropdownlist|1||Organic Product Specials|||355|100|6
Specials|Dropdownlist|1||Organic Product Specials|||355|104|7
Specials|Dropdownlist|1||Organic Product Specials|||362|86|1
Specials|Dropdownlist|1||Organic Product Specials|||362|90|2
Specials|Dropdownlist|1||Organic Product Specials|||362|91|8
Specials|Dropdownlist|1||Organic Product Specials|||362|92|3
Specials|Dropdownlist|1||Organic Product Specials|||362|93|4
Specials|Dropdownlist|1||Organic Product Specials|||362|98|5
Specials|Dropdownlist|1||Organic Product Specials|||362|100|6
Specials|Dropdownlist|1||Organic Product Specials|||362|104|7
Specials|Dropdownlist|1||Organic Product Specials|||365|86|1
Specials|Dropdownlist|1||Organic Product Specials|||365|90|2
Specials|Dropdownlist|1||Organic Product Specials|||365|91|8
Specials|Dropdownlist|1||Organic Product Specials|||365|92|3
Specials|Dropdownlist|1||Organic Product Specials|||365|93|4
Specials|Dropdownlist|1||Organic Product Specials|||365|98|5
Specials|Dropdownlist|1||Organic Product Specials|||365|100|6
Specials|Dropdownlist|1||Organic Product Specials|||365|104|7
Specials|Dropdownlist|1||Organic Product Specials|||366|86|1
Specials|Dropdownlist|1||Organic Product Specials|||366|90|2
Specials|Dropdownlist|1||Organic Product Specials|||366|91|8
Specials|Dropdownlist|1||Organic Product Specials|||366|92|3
Specials|Dropdownlist|1||Organic Product Specials|||366|93|4
Specials|Dropdownlist|1||Organic Product Specials|||366|98|5
Specials|Dropdownlist|1||Organic Product Specials|||366|100|6
Specials|Dropdownlist|1||Organic Product Specials|||366|104|7
Sharp|Dropdownlist|1||Extra Sharp||1|385|92|1
Sharp|Dropdownlist|1||Mildly Sharp||2|387|92|1
Sharp|Dropdownlist|1||Mildly Sharp||2|390|92|1
Sharp|Dropdownlist|1||Mildly Sharp||2|394|92|1
Sharp|Dropdownlist|1||Mildly Sharp||2|395|92|1
Mild|Dropdownlist|1||White||1|348|92|1
Mild|Dropdownlist|1||White||1|387|92|1
Mild|Dropdownlist|1||White||1|389|92|1
Mild|Dropdownlist|1||White||1|392|92|1
Mild|Dropdownlist|1||White||1|393|92|1
Mild|Dropdownlist|1||Yellow||2|388|92|1
Mild|Dropdownlist|1||Yellow||2|391|92|1
Grape Color|Dropdownlist|1||Red||1|341|93|1
Grape Color|Dropdownlist|1||Red||1|349|93|1
Grape Color|Dropdownlist|1||Red||1|351|93|1
Grape Color|Dropdownlist|1||Red||1|352|93|1
Grape Color|Dropdownlist|1||Red||1|383|93|1
Grape Color|Dropdownlist|1||White||2|350|93|1
Grape Color|Dropdownlist|1||White||2|379|93|1
Grape Color|Dropdownlist|1||White||2|380|93|1
Grape Color|Dropdownlist|1||White||2|381|93|1
Grape Color|Dropdownlist|1||White||2|382|93|1
Grape Color|Dropdownlist|1||White||2|384|93|1
Grape Color|Dropdownlist|1||Pink||3|341|93|1
Grape Color|Dropdownlist|1||Pink||3|352|93|1
Grape Color|Dropdownlist|1||Pink||3|353|93|1
Season|Dropdownlist|1||Annual||1|327|85|1
Season|Dropdownlist|1||Bi-Annual||2|326|85|1
Season|Dropdownlist|1||Periannual||3|346|85|1
Shelled|Dropdownlist|1||Yes||1|357|91|5
Shelled|Dropdownlist|1||Yes||1|357|99|4
Shelled|Dropdownlist|1||Yes||1|357|100|3
Shelled|Dropdownlist|1||Yes||1|357|101|2
Shelled|Dropdownlist|1||Yes||1|357|102|1
Shelled|Dropdownlist|1||Yes||1|360|91|5
Shelled|Dropdownlist|1||Yes||1|360|99|4
Shelled|Dropdownlist|1||Yes||1|360|100|3
Shelled|Dropdownlist|1||Yes||1|360|101|2
Shelled|Dropdownlist|1||Yes||1|360|102|1
Shelled|Dropdownlist|1||Yes||1|361|91|5
Shelled|Dropdownlist|1||Yes||1|361|99|4
Shelled|Dropdownlist|1||Yes||1|361|100|3
Shelled|Dropdownlist|1||Yes||1|361|101|2
Shelled|Dropdownlist|1||Yes||1|361|102|1
Shelled|Dropdownlist|1||Yes||1|362|91|5
Shelled|Dropdownlist|1||Yes||1|362|99|4
Shelled|Dropdownlist|1||Yes||1|362|100|3
Shelled|Dropdownlist|1||Yes||1|362|101|2
Shelled|Dropdownlist|1||Yes||1|362|102|1
Shelled|Dropdownlist|1||Yes||1|366|91|5
Shelled|Dropdownlist|1||Yes||1|366|99|4
Shelled|Dropdownlist|1||Yes||1|366|100|3
Shelled|Dropdownlist|1||Yes||1|366|101|2
Shelled|Dropdownlist|1||Yes||1|366|102|1
Shelled|Dropdownlist|1||Yes||1|368|91|5
Shelled|Dropdownlist|1||Yes||1|368|99|4
Shelled|Dropdownlist|1||Yes||1|368|100|3
Shelled|Dropdownlist|1||Yes||1|368|101|2
Shelled|Dropdownlist|1||Yes||1|368|102|1
Shelled|Dropdownlist|1||No||2|355|91|5
Shelled|Dropdownlist|1||No||2|355|99|4
Shelled|Dropdownlist|1||No||2|355|100|3
Shelled|Dropdownlist|1||No||2|355|101|2
Shelled|Dropdownlist|1||No||2|355|102|1
Shelled|Dropdownlist|1||No||2|356|91|5
Shelled|Dropdownlist|1||No||2|356|99|4
Shelled|Dropdownlist|1||No||2|356|100|3
Shelled|Dropdownlist|1||No||2|356|101|2
Shelled|Dropdownlist|1||No||2|356|102|1
Shelled|Dropdownlist|1||No||2|358|91|5
Shelled|Dropdownlist|1||No||2|358|99|4
Shelled|Dropdownlist|1||No||2|358|100|3
Shelled|Dropdownlist|1||No||2|358|101|2
Shelled|Dropdownlist|1||No||2|358|102|1
Shelled|Dropdownlist|1||No||2|363|91|5
Shelled|Dropdownlist|1||No||2|363|99|4
Shelled|Dropdownlist|1||No||2|363|100|3
Shelled|Dropdownlist|1||No||2|363|101|2
Shelled|Dropdownlist|1||No||2|363|102|1
Shelled|Dropdownlist|1||No||2|364|91|5
Shelled|Dropdownlist|1||No||2|364|99|4
Shelled|Dropdownlist|1||No||2|364|100|3
Shelled|Dropdownlist|1||No||2|364|101|2
Shelled|Dropdownlist|1||No||2|364|102|1
Salted|Dropdownlist|1||Yes||1|347|91|7
Salted|Dropdownlist|1||Yes||1|347|99|1
Salted|Dropdownlist|1||Yes||1|347|100|2
Salted|Dropdownlist|1||Yes||1|347|101|3
Salted|Dropdownlist|1||Yes||1|347|102|5
Salted|Dropdownlist|1||Yes||1|347|103|6
Salted|Dropdownlist|1||Yes||1|347|104|4
Salted|Dropdownlist|1||Yes||1|357|91|7
Salted|Dropdownlist|1||Yes||1|357|99|1
Salted|Dropdownlist|1||Yes||1|357|100|2
Salted|Dropdownlist|1||Yes||1|357|101|3
Salted|Dropdownlist|1||Yes||1|357|102|5
Salted|Dropdownlist|1||Yes||1|357|103|6
Salted|Dropdownlist|1||Yes||1|357|104|4
Salted|Dropdownlist|1||Yes||1|360|91|7
Salted|Dropdownlist|1||Yes||1|360|99|1
Salted|Dropdownlist|1||Yes||1|360|100|2
Salted|Dropdownlist|1||Yes||1|360|101|3
Salted|Dropdownlist|1||Yes||1|360|102|5
Salted|Dropdownlist|1||Yes||1|360|103|6
Salted|Dropdownlist|1||Yes||1|360|104|4
Salted|Dropdownlist|1||Yes||1|362|91|7
Salted|Dropdownlist|1||Yes||1|362|99|1
Salted|Dropdownlist|1||Yes||1|362|100|2
Salted|Dropdownlist|1||Yes||1|362|101|3
Salted|Dropdownlist|1||Yes||1|362|102|5
Salted|Dropdownlist|1||Yes||1|362|103|6
Salted|Dropdownlist|1||Yes||1|362|104|4
Salted|Dropdownlist|1||Yes||1|364|91|7
Salted|Dropdownlist|1||Yes||1|364|99|1
Salted|Dropdownlist|1||Yes||1|364|100|2
Salted|Dropdownlist|1||Yes||1|364|101|3
Salted|Dropdownlist|1||Yes||1|364|102|5
Salted|Dropdownlist|1||Yes||1|364|103|6
Salted|Dropdownlist|1||Yes||1|364|104|4
Salted|Dropdownlist|1||Yes||1|368|91|7
Salted|Dropdownlist|1||Yes||1|368|99|1
Salted|Dropdownlist|1||Yes||1|368|100|2
Salted|Dropdownlist|1||Yes||1|368|101|3
Salted|Dropdownlist|1||Yes||1|368|102|5
Salted|Dropdownlist|1||Yes||1|368|103|6
Salted|Dropdownlist|1||Yes||1|368|104|4
Salted|Dropdownlist|1||No||2|363|91|7
Salted|Dropdownlist|1||No||2|363|99|1
Salted|Dropdownlist|1||No||2|363|100|2
Salted|Dropdownlist|1||No||2|363|101|3
Salted|Dropdownlist|1||No||2|363|102|5
Salted|Dropdownlist|1||No||2|363|103|6
Salted|Dropdownlist|1||No||2|363|104|4
Calories|Dropdownlist|6||< 15|||463|110|1
Calories|Dropdownlist|6||< 15|||463|111|1
Calories|Dropdownlist|6||< 15|||476|110|1
Calories|Dropdownlist|6||< 15|||476|111|1
Calories|Dropdownlist|6||< 15|||481|110|1
Calories|Dropdownlist|6||< 15|||481|111|1
Calories|Dropdownlist|6||< 15|||484|110|1
Calories|Dropdownlist|6||< 15|||484|111|1
Calories|Dropdownlist|6||Entre 15 et 50|||464|110|1
Calories|Dropdownlist|6||Entre 15 et 50|||464|111|1
Calories|Dropdownlist|6||Entre 15 et 50|||474|110|1
Calories|Dropdownlist|6||Entre 15 et 50|||474|111|1
Calories|Dropdownlist|6||Entre 15 et 50|||480|110|1
Calories|Dropdownlist|6||Entre 15 et 50|||480|111|1
Calories|Dropdownlist|6||Entre 15 et 50|||485|110|1
Calories|Dropdownlist|6||Entre 15 et 50|||485|111|1
Calories|Dropdownlist|6||> 50|||465|110|1
Calories|Dropdownlist|6||> 50|||465|111|1
Calories|Dropdownlist|6||> 50|||466|110|1
Calories|Dropdownlist|6||> 50|||466|111|1
Calories|Dropdownlist|6||> 50|||479|110|1
Calories|Dropdownlist|6||> 50|||479|111|1
Calories|Dropdownlist|6||> 50|||483|110|1
Calories|Dropdownlist|6||> 50|||483|111|1
Calories|Dropdownlist|6||> 50|||484|110|1
Calories|Dropdownlist|6||> 50|||484|111|1
Marques|Dropdownlist|6||Farmer Jims||1|463|110|2
Marques|Dropdownlist|6||Farmer Jims||1|463|111|2
Marques|Dropdownlist|6||Farmer Jims||1|476|110|2
Marques|Dropdownlist|6||Farmer Jims||1|476|111|2
Marques|Dropdownlist|6||Farmer Jims||1|481|110|2
Marques|Dropdownlist|6||Farmer Jims||1|481|111|2
Marques|Dropdownlist|6||Harry & Davids|||464|110|2
Marques|Dropdownlist|6||Harry & Davids|||464|111|2
Marques|Dropdownlist|6||Harry & Davids|||466|110|2
Marques|Dropdownlist|6||Harry & Davids|||466|111|2
Marques|Dropdownlist|6||Harry & Davids|||484|110|2
Marques|Dropdownlist|6||Harry & Davids|||484|111|2
Marques|Dropdownlist|6||Harry & Davids|||485|110|2
Marques|Dropdownlist|6||Harry & Davids|||485|111|2
Marques|Dropdownlist|6||World Market|||465|110|2
Marques|Dropdownlist|6||World Market|||465|111|2
Marques|Dropdownlist|6||World Market|||479|110|2
Marques|Dropdownlist|6||World Market|||479|111|2
Marques|Dropdownlist|6||World Market|||480|110|2
Marques|Dropdownlist|6||World Market|||480|111|2
Marques|Dropdownlist|6||Smuckers|||474|110|2
Marques|Dropdownlist|6||Smuckers|||474|111|2
Marques|Dropdownlist|6||Smuckers|||483|110|2
Marques|Dropdownlist|6||Smuckers|||483|111|2
Fonctions speciales|Dropdownlist|6||Cultives localement|||463|110|3
Fonctions speciales|Dropdownlist|6||Cultives localement|||463|111|3
Fonctions speciales|Dropdownlist|6||Cultives localement|||476|110|3
Fonctions speciales|Dropdownlist|6||Cultives localement|||476|111|3
Fonctions speciales|Dropdownlist|6||Cultives localement|||481|110|3
Fonctions speciales|Dropdownlist|6||Cultives localement|||481|111|3
Fonctions speciales|Dropdownlist|6||Cultives localement|||484|110|3
Fonctions speciales|Dropdownlist|6||Cultives localement|||484|111|3
Fonctions speciales|Dropdownlist|6||USDA|||464|110|3
Fonctions speciales|Dropdownlist|6||USDA|||464|111|3
Fonctions speciales|Dropdownlist|6||USDA|||474|110|3
Fonctions speciales|Dropdownlist|6||USDA|||474|111|3
Fonctions speciales|Dropdownlist|6||USDA|||480|110|3
Fonctions speciales|Dropdownlist|6||USDA|||480|111|3
Fonctions speciales|Dropdownlist|6||USDA|||485|110|3
Fonctions speciales|Dropdownlist|6||USDA|||485|111|3
Fonctions speciales|Dropdownlist|6||Organique|||465|110|3
Fonctions speciales|Dropdownlist|6||Organique|||465|111|3
Fonctions speciales|Dropdownlist|6||Organique|||466|110|3
Fonctions speciales|Dropdownlist|6||Organique|||466|111|3
Fonctions speciales|Dropdownlist|6||Organique|||479|110|3
Fonctions speciales|Dropdownlist|6||Organique|||479|111|3
Fonctions speciales|Dropdownlist|6||Organique|||483|110|3
Fonctions speciales|Dropdownlist|6||Organique|||483|111|3
Couleur|Dropdownlist|6||Rouge|||411|110|4
Couleur|Dropdownlist|6||Rouge|||411|111|4
Couleur|Dropdownlist|6||Rouge|||411|112|4
Couleur|Dropdownlist|6||Rouge|||462|110|4
Couleur|Dropdownlist|6||Rouge|||462|111|4
Couleur|Dropdownlist|6||Rouge|||462|112|4
Couleur|Dropdownlist|6||Rouge|||463|110|4
Couleur|Dropdownlist|6||Rouge|||463|111|4
Couleur|Dropdownlist|6||Rouge|||463|112|4
Couleur|Dropdownlist|6||Rouge|||468|110|4
Couleur|Dropdownlist|6||Rouge|||468|111|4
Couleur|Dropdownlist|6||Rouge|||468|112|4
Couleur|Dropdownlist|6||Rouge|||481|110|4
Couleur|Dropdownlist|6||Rouge|||481|111|4
Couleur|Dropdownlist|6||Rouge|||481|112|4
Couleur|Dropdownlist|6||Rouge|||482|110|4
Couleur|Dropdownlist|6||Rouge|||482|111|4
Couleur|Dropdownlist|6||Rouge|||482|112|4
Couleur|Dropdownlist|6||Rouge|||483|110|4
Couleur|Dropdownlist|6||Rouge|||483|111|4
Couleur|Dropdownlist|6||Rouge|||483|112|4
Couleur|Dropdownlist|6||Rouge|||484|110|4
Couleur|Dropdownlist|6||Rouge|||484|111|4
Couleur|Dropdownlist|6||Rouge|||484|112|4
Couleur|Dropdownlist|6||Blanc|||411|110|4
Couleur|Dropdownlist|6||Blanc|||411|111|4
Couleur|Dropdownlist|6||Blanc|||411|112|4
Couleur|Dropdownlist|6||Blanc|||461|110|4
Couleur|Dropdownlist|6||Blanc|||461|111|4
Couleur|Dropdownlist|6||Blanc|||461|112|4
Couleur|Dropdownlist|6||Blanc|||462|110|4
Couleur|Dropdownlist|6||Blanc|||462|111|4
Couleur|Dropdownlist|6||Blanc|||462|112|4
Couleur|Dropdownlist|6||Blanc|||468|110|4
Couleur|Dropdownlist|6||Blanc|||468|111|4
Couleur|Dropdownlist|6||Blanc|||468|112|4
Couleur|Dropdownlist|6||Blanc|||479|110|4
Couleur|Dropdownlist|6||Blanc|||479|111|4
Couleur|Dropdownlist|6||Blanc|||479|112|4
Couleur|Dropdownlist|6||Blanc|||482|110|4
Couleur|Dropdownlist|6||Blanc|||482|111|4
Couleur|Dropdownlist|6||Blanc|||482|112|4
Couleur|Dropdownlist|6||Brun|||476|110|4
Couleur|Dropdownlist|6||Brun|||476|111|4
Couleur|Dropdownlist|6||Brun|||476|112|4
Couleur|Dropdownlist|6||Brun|||480|110|4
Couleur|Dropdownlist|6||Brun|||480|111|4
Couleur|Dropdownlist|6||Brun|||480|112|4
Couleur|Dropdownlist|6||Verte|||465|110|4
Couleur|Dropdownlist|6||Verte|||465|111|4
Couleur|Dropdownlist|6||Verte|||465|112|4
Couleur|Dropdownlist|6||Verte|||483|110|4
Couleur|Dropdownlist|6||Verte|||483|111|4
Couleur|Dropdownlist|6||Verte|||483|112|4
Couleur|Dropdownlist|6||Verte|||485|110|4
Couleur|Dropdownlist|6||Verte|||485|111|4
Couleur|Dropdownlist|6||Verte|||485|112|4
Couleur|Dropdownlist|6||Noir|||481|110|4
Couleur|Dropdownlist|6||Noir|||481|111|4
Couleur|Dropdownlist|6||Noir|||481|112|4
Couleur|Dropdownlist|6||Noir|||481|110|4
Couleur|Dropdownlist|6||Noir|||481|111|4
Couleur|Dropdownlist|6||Noir|||481|112|4
Couleur|Dropdownlist|6||Rose||2|411|110|4
Couleur|Dropdownlist|6||Rose||2|411|111|4
Couleur|Dropdownlist|6||Rose||2|411|112|4
Couleur|Dropdownlist|6||Rose||2|461|110|4
Couleur|Dropdownlist|6||Rose||2|461|111|4
Couleur|Dropdownlist|6||Rose||2|461|112|4
Couleur|Dropdownlist|6||Rose||2|462|110|4
Couleur|Dropdownlist|6||Rose||2|462|111|4
Couleur|Dropdownlist|6||Rose||2|462|112|4
Couleur|Dropdownlist|6||Rose||2|467|110|4
Couleur|Dropdownlist|6||Rose||2|467|111|4
Couleur|Dropdownlist|6||Rose||2|467|112|4
Couleur|Dropdownlist|6||Rose||2|468|110|4
Couleur|Dropdownlist|6||Rose||2|468|111|4
Couleur|Dropdownlist|6||Rose||2|468|112|4
Couleur|Dropdownlist|6||Pourpre||2|462|110|4
Couleur|Dropdownlist|6||Pourpre||2|462|111|4
Couleur|Dropdownlist|6||Pourpre||2|462|112|4
Couleur|Dropdownlist|6||Pourpre||2|467|110|4
Couleur|Dropdownlist|6||Pourpre||2|467|111|4
Couleur|Dropdownlist|6||Pourpre||2|467|112|4
Couleur|Dropdownlist|6||Pourpre||2|468|110|4
Couleur|Dropdownlist|6||Pourpre||2|468|111|4
Couleur|Dropdownlist|6||Pourpre||2|468|112|4
Couleur|Dropdownlist|6||Pourpre||2|473|110|4
Couleur|Dropdownlist|6||Pourpre||2|473|111|4
Couleur|Dropdownlist|6||Pourpre||2|473|112|4
Couleur|Dropdownlist|6||Pourpre||2|475|110|4
Couleur|Dropdownlist|6||Pourpre||2|475|111|4
Couleur|Dropdownlist|6||Pourpre||2|475|112|4
Gamme de prix|Dropdownlist|6||$1 - $10|||463|110|5
Gamme de prix|Dropdownlist|6||$1 - $10|||463|111|5
Gamme de prix|Dropdownlist|6||$1 - $10|||464|110|5
Gamme de prix|Dropdownlist|6||$1 - $10|||464|111|5
Gamme de prix|Dropdownlist|6||$1 - $10|||465|110|5
Gamme de prix|Dropdownlist|6||$1 - $10|||465|111|5
Gamme de prix|Dropdownlist|6||$1 - $10|||466|110|5
Gamme de prix|Dropdownlist|6||$1 - $10|||466|111|5
Gamme de prix|Dropdownlist|6||$1 - $10|||466|110|5
Gamme de prix|Dropdownlist|6||$1 - $10|||466|111|5
Gamme de prix|Dropdownlist|6||$1 - $10|||474|110|5
Gamme de prix|Dropdownlist|6||$1 - $10|||474|111|5
Gamme de prix|Dropdownlist|6||$1 - $10|||476|110|5
Gamme de prix|Dropdownlist|6||$1 - $10|||476|111|5
Gamme de prix|Dropdownlist|6||$1 - $10|||479|110|5
Gamme de prix|Dropdownlist|6||$1 - $10|||479|111|5
Gamme de prix|Dropdownlist|6||$1 - $10|||480|110|5
Gamme de prix|Dropdownlist|6||$1 - $10|||480|111|5
Gamme de prix|Dropdownlist|6||$1 - $10|||481|110|5
Gamme de prix|Dropdownlist|6||$1 - $10|||481|111|5
Gamme de prix|Dropdownlist|6||$1 - $10|||483|110|5
Gamme de prix|Dropdownlist|6||$1 - $10|||483|111|5
Gamme de prix|Dropdownlist|6||$1 - $10|||484|110|5
Gamme de prix|Dropdownlist|6||$1 - $10|||484|111|5
Gamme de prix|Dropdownlist|6||$1 - $10|||485|110|5
Gamme de prix|Dropdownlist|6||$1 - $10|||485|111|5
Famille|Dropdownlist|6||poivre|||476|111|6
Famille|Dropdownlist|6||Verdoyant|||481|111|6
Famille|Dropdownlist|6||Condiment|||464|111|6
Famille|Dropdownlist|6||Amidon|||485|111|6
Famille|Dropdownlist|6||Racine|||465|111|6
Famille|Dropdownlist|6||Haricot|||483|111|6
Especiales|Dropdownlist|6||Promotions du Mois|||413|113|7
Especiales|Dropdownlist|6||Promotions du Mois|||413|116|7
Especiales|Dropdownlist|6||Promotions du Mois|||413|117|7
Especiales|Dropdownlist|6||Promotions du Mois|||413|118|7
Especiales|Dropdownlist|6||Promotions du Mois|||413|119|7
Especiales|Dropdownlist|6||Promotions du Mois|||420|113|7
Especiales|Dropdownlist|6||Promotions du Mois|||420|116|7
Especiales|Dropdownlist|6||Promotions du Mois|||420|117|7
Especiales|Dropdownlist|6||Promotions du Mois|||420|118|7
Especiales|Dropdownlist|6||Promotions du Mois|||420|119|7
Especiales|Dropdownlist|6||Promotions du Mois|||430|113|7
Especiales|Dropdownlist|6||Promotions du Mois|||430|116|7
Especiales|Dropdownlist|6||Promotions du Mois|||430|117|7
Especiales|Dropdownlist|6||Promotions du Mois|||430|118|7
Especiales|Dropdownlist|6||Promotions du Mois|||430|119|7
Especiales|Dropdownlist|6||Promotions du Mois|||437|113|7
Especiales|Dropdownlist|6||Promotions du Mois|||437|116|7
Especiales|Dropdownlist|6||Promotions du Mois|||437|117|7
Especiales|Dropdownlist|6||Promotions du Mois|||437|118|7
Especiales|Dropdownlist|6||Promotions du Mois|||437|119|7
Especiales|Dropdownlist|6||Promotions du Mois|||440|113|7
Especiales|Dropdownlist|6||Promotions du Mois|||440|116|7
Especiales|Dropdownlist|6||Promotions du Mois|||440|117|7
Especiales|Dropdownlist|6||Promotions du Mois|||440|118|7
Especiales|Dropdownlist|6||Promotions du Mois|||440|119|7
Especiales|Dropdownlist|6||Promotions du Mois|||447|113|7
Especiales|Dropdownlist|6||Promotions du Mois|||447|116|7
Especiales|Dropdownlist|6||Promotions du Mois|||447|117|7
Especiales|Dropdownlist|6||Promotions du Mois|||447|118|7
Especiales|Dropdownlist|6||Promotions du Mois|||447|119|7
Especiales|Dropdownlist|6||Promotions du Mois|||467|113|7
Especiales|Dropdownlist|6||Promotions du Mois|||467|116|7
Especiales|Dropdownlist|6||Promotions du Mois|||467|117|7
Especiales|Dropdownlist|6||Promotions du Mois|||467|118|7
Especiales|Dropdownlist|6||Promotions du Mois|||467|119|7
Especiales|Dropdownlist|6||Promotions du Mois|||471|113|7
Especiales|Dropdownlist|6||Promotions du Mois|||471|116|7
Especiales|Dropdownlist|6||Promotions du Mois|||471|117|7
Especiales|Dropdownlist|6||Promotions du Mois|||471|118|7
Especiales|Dropdownlist|6||Promotions du Mois|||471|119|7
Especiales|Dropdownlist|6||Promotions du Mois|||473|113|7
Especiales|Dropdownlist|6||Promotions du Mois|||473|116|7
Especiales|Dropdownlist|6||Promotions du Mois|||473|117|7
Especiales|Dropdownlist|6||Promotions du Mois|||473|118|7
Especiales|Dropdownlist|6||Promotions du Mois|||473|119|7
Especiales|Dropdownlist|6||Promotions du Mois|||475|113|7
Especiales|Dropdownlist|6||Promotions du Mois|||475|116|7
Especiales|Dropdownlist|6||Promotions du Mois|||475|117|7
Especiales|Dropdownlist|6||Promotions du Mois|||475|118|7
Especiales|Dropdownlist|6||Promotions du Mois|||475|119|7
Especiales|Dropdownlist|6||Promotions de Vin|||413|113|7
Especiales|Dropdownlist|6||Promotions de Vin|||413|116|7
Especiales|Dropdownlist|6||Promotions de Vin|||413|117|7
Especiales|Dropdownlist|6||Promotions de Vin|||413|118|7
Especiales|Dropdownlist|6||Promotions de Vin|||413|119|7
Especiales|Dropdownlist|6||Promotions de Vin|||415|113|7
Especiales|Dropdownlist|6||Promotions de Vin|||415|116|7
Especiales|Dropdownlist|6||Promotions de Vin|||415|117|7
Especiales|Dropdownlist|6||Promotions de Vin|||415|118|7
Especiales|Dropdownlist|6||Promotions de Vin|||415|119|7
Especiales|Dropdownlist|6||Promotions de Vin|||416|113|7
Especiales|Dropdownlist|6||Promotions de Vin|||416|116|7
Especiales|Dropdownlist|6||Promotions de Vin|||416|117|7
Especiales|Dropdownlist|6||Promotions de Vin|||416|118|7
Especiales|Dropdownlist|6||Promotions de Vin|||416|119|7
Especiales|Dropdownlist|6||Promotions de Vin|||418|113|7
Especiales|Dropdownlist|6||Promotions de Vin|||418|116|7
Especiales|Dropdownlist|6||Promotions de Vin|||418|117|7
Especiales|Dropdownlist|6||Promotions de Vin|||418|118|7
Especiales|Dropdownlist|6||Promotions de Vin|||418|119|7
Especiales|Dropdownlist|6||Promotions de Vin|||435|113|7
Especiales|Dropdownlist|6||Promotions de Vin|||435|116|7
Especiales|Dropdownlist|6||Promotions de Vin|||435|117|7
Especiales|Dropdownlist|6||Promotions de Vin|||435|118|7
Especiales|Dropdownlist|6||Promotions de Vin|||435|119|7
Especiales|Dropdownlist|6||Promotions de Vin|||442|113|7
Especiales|Dropdownlist|6||Promotions de Vin|||442|116|7
Especiales|Dropdownlist|6||Promotions de Vin|||442|117|7
Especiales|Dropdownlist|6||Promotions de Vin|||442|118|7
Especiales|Dropdownlist|6||Promotions de Vin|||442|119|7
Especiales|Dropdownlist|6||Promotions de Vin|||443|113|7
Especiales|Dropdownlist|6||Promotions de Vin|||443|116|7
Especiales|Dropdownlist|6||Promotions de Vin|||443|117|7
Especiales|Dropdownlist|6||Promotions de Vin|||443|118|7
Especiales|Dropdownlist|6||Promotions de Vin|||443|119|7
Especiales|Dropdownlist|6||Promotions de Vin|||445|113|7
Especiales|Dropdownlist|6||Promotions de Vin|||445|116|7
Especiales|Dropdownlist|6||Promotions de Vin|||445|117|7
Especiales|Dropdownlist|6||Promotions de Vin|||445|118|7
Especiales|Dropdownlist|6||Promotions de Vin|||445|119|7
Especiales|Dropdownlist|6||Promotions de Vin|||479|113|7
Especiales|Dropdownlist|6||Promotions de Vin|||479|116|7
Especiales|Dropdownlist|6||Promotions de Vin|||479|117|7
Especiales|Dropdownlist|6||Promotions de Vin|||479|118|7
Especiales|Dropdownlist|6||Promotions de Vin|||479|119|7
Especiales|Dropdownlist|6||Promotions de Vin|||487|113|7
Especiales|Dropdownlist|6||Promotions de Vin|||487|116|7
Especiales|Dropdownlist|6||Promotions de Vin|||487|117|7
Especiales|Dropdownlist|6||Promotions de Vin|||487|118|7
Especiales|Dropdownlist|6||Promotions de Vin|||487|119|7
Especiales|Dropdownlist|6||Promotions des Produits Biologiques|||412|113|7
Especiales|Dropdownlist|6||Promotions des Produits Biologiques|||412|116|7
Especiales|Dropdownlist|6||Promotions des Produits Biologiques|||412|117|7
Especiales|Dropdownlist|6||Promotions des Produits Biologiques|||412|118|7
Especiales|Dropdownlist|6||Promotions des Produits Biologiques|||412|119|7
Especiales|Dropdownlist|6||Promotions des Produits Biologiques|||419|113|7
Especiales|Dropdownlist|6||Promotions des Produits Biologiques|||419|116|7
Especiales|Dropdownlist|6||Promotions des Produits Biologiques|||419|117|7
Especiales|Dropdownlist|6||Promotions des Produits Biologiques|||419|118|7
Especiales|Dropdownlist|6||Promotions des Produits Biologiques|||419|119|7
Especiales|Dropdownlist|6||Promotions des Produits Biologiques|||425|113|7
Especiales|Dropdownlist|6||Promotions des Produits Biologiques|||425|116|7
Especiales|Dropdownlist|6||Promotions des Produits Biologiques|||425|117|7
Especiales|Dropdownlist|6||Promotions des Produits Biologiques|||425|118|7
Especiales|Dropdownlist|6||Promotions des Produits Biologiques|||425|119|7
Especiales|Dropdownlist|6||Promotions des Produits Biologiques|||428|113|7
Especiales|Dropdownlist|6||Promotions des Produits Biologiques|||428|116|7
Especiales|Dropdownlist|6||Promotions des Produits Biologiques|||428|117|7
Especiales|Dropdownlist|6||Promotions des Produits Biologiques|||428|118|7
Especiales|Dropdownlist|6||Promotions des Produits Biologiques|||428|119|7
Especiales|Dropdownlist|6||Promotions des Produits Biologiques|||429|113|7
Especiales|Dropdownlist|6||Promotions des Produits Biologiques|||429|116|7
Especiales|Dropdownlist|6||Promotions des Produits Biologiques|||429|117|7
Especiales|Dropdownlist|6||Promotions des Produits Biologiques|||429|118|7
Especiales|Dropdownlist|6||Promotions des Produits Biologiques|||429|119|7
Especiales|Dropdownlist|6||Promotions des Produits Biologiques|||464|113|7
Especiales|Dropdownlist|6||Promotions des Produits Biologiques|||464|116|7
Especiales|Dropdownlist|6||Promotions des Produits Biologiques|||464|117|7
Especiales|Dropdownlist|6||Promotions des Produits Biologiques|||464|118|7
Especiales|Dropdownlist|6||Promotions des Produits Biologiques|||464|119|7
Especiales|Dropdownlist|6||Promotions des Produits Biologiques|||470|113|7
Especiales|Dropdownlist|6||Promotions des Produits Biologiques|||470|116|7
Especiales|Dropdownlist|6||Promotions des Produits Biologiques|||470|117|7
Especiales|Dropdownlist|6||Promotions des Produits Biologiques|||470|118|7
Especiales|Dropdownlist|6||Promotions des Produits Biologiques|||470|119|7
Especiales|Dropdownlist|6||Promotions des Produits Biologiques|||477|113|7
Especiales|Dropdownlist|6||Promotions des Produits Biologiques|||477|116|7
Especiales|Dropdownlist|6||Promotions des Produits Biologiques|||477|117|7
Especiales|Dropdownlist|6||Promotions des Produits Biologiques|||477|118|7
Especiales|Dropdownlist|6||Promotions des Produits Biologiques|||477|119|7
Especiales|Dropdownlist|6||Promotions des Produits Biologiques|||478|113|7
Especiales|Dropdownlist|6||Promotions des Produits Biologiques|||478|116|7
Especiales|Dropdownlist|6||Promotions des Produits Biologiques|||478|117|7
Especiales|Dropdownlist|6||Promotions des Produits Biologiques|||478|118|7
Especiales|Dropdownlist|6||Promotions des Produits Biologiques|||478|119|7
Queso |Dropdownlist|6||Extra-fort||1|437|118|8
Queso |Dropdownlist|6||Legerement forte||2|439|118|8
Queso |Dropdownlist|6||Legerement forte||2|442|118|8
Queso |Dropdownlist|6||Legerement forte||2|446|118|8
Queso |Dropdownlist|6||Legerement forte||2|447|118|8
Doux|Dropdownlist|6||Blanc||1|413|118|9
Doux|Dropdownlist|6||Blanc||1|439|118|9
Doux|Dropdownlist|6||Blanc||1|441|118|9
Doux|Dropdownlist|6||Blanc||1|444|118|9
Doux|Dropdownlist|6||Blanc||1|445|118|9
Doux|Dropdownlist|6||Jaune||2|440|118|9
Doux|Dropdownlist|6||Jaune||2|443|118|9
De raisin de couleur|Dropdownlist|6||Rouge||1|414|119|10
De raisin de couleur|Dropdownlist|6||Rouge||1|416|119|10
De raisin de couleur|Dropdownlist|6||Rouge||1|417|119|10
De raisin de couleur|Dropdownlist|6||Rouge||1|435|119|10
De raisin de couleur|Dropdownlist|6||Rouge||1|487|119|10
De raisin de couleur|Dropdownlist|6||Blanc||2|415|119|10
De raisin de couleur|Dropdownlist|6||Blanc||2|431|119|10
De raisin de couleur|Dropdownlist|6||Blanc||2|432|119|10
De raisin de couleur|Dropdownlist|6||Blanc||2|433|119|10
De raisin de couleur|Dropdownlist|6||Blanc||2|434|119|10
De raisin de couleur|Dropdownlist|6||Blanc||2|436|119|10
De raisin de couleur|Dropdownlist|6||Rose||3|417|119|10
De raisin de couleur|Dropdownlist|6||Rose||3|418|119|10
De raisin de couleur|Dropdownlist|6||Rose||3|487|119|10
Saison|Dropdownlist|6||Annuel||1|462|112|11
Saison|Dropdownlist|6||Bi-Annuel||2|461|112|11
Saison|Dropdownlist|6||Periannual||3|411|112|11
Egrene|Dropdownlist|6||Oui||1|421|117|12
Egrene|Dropdownlist|6||Oui||1|423|117|12
Egrene|Dropdownlist|6||Oui||1|424|117|12
Egrene|Dropdownlist|6||Oui||1|425|117|12
Egrene|Dropdownlist|6||Oui||1|429|117|12
Egrene|Dropdownlist|6||Oui||1|430|117|12
Egrene|Dropdownlist|6||Non||2|419|117|12
Egrene|Dropdownlist|6||Non||2|420|117|12
Egrene|Dropdownlist|6||Non||2|422|117|12
Egrene|Dropdownlist|6||Non||2|426|117|12
Egrene|Dropdownlist|6||Non||2|427|117|12
Sale|Dropdownlist|6||Oui||1|412|117|13
Sale|Dropdownlist|6||Oui||1|421|117|13
Sale|Dropdownlist|6||Oui||1|423|117|13
Sale|Dropdownlist|6||Oui||1|425|117|13
Sale|Dropdownlist|6||Oui||1|427|117|13
Sale|Dropdownlist|6||Oui||1|430|117|13
Sale|Dropdownlist|6||Non||2|426|117|13
Calorias|Dropdownlist|7||<15|||540|120|1
Calorias|Dropdownlist|7||<15|||540|121|1
Calorias|Dropdownlist|7||<15|||553|120|1
Calorias|Dropdownlist|7||<15|||553|121|1
Calorias|Dropdownlist|7||<15|||558|120|1
Calorias|Dropdownlist|7||<15|||558|121|1
Calorias|Dropdownlist|7||<15|||561|120|1
Calorias|Dropdownlist|7||<15|||561|121|1
Calorias|Dropdownlist|7||Entre el 15 y 50|||541|120|1
Calorias|Dropdownlist|7||Entre el 15 y 50|||541|121|1
Calorias|Dropdownlist|7||Entre el 15 y 50|||551|120|1
Calorias|Dropdownlist|7||Entre el 15 y 50|||551|121|1
Calorias|Dropdownlist|7||Entre el 15 y 50|||557|120|1
Calorias|Dropdownlist|7||Entre el 15 y 50|||557|121|1
Calorias|Dropdownlist|7||Entre el 15 y 50|||562|120|1
Calorias|Dropdownlist|7||Entre el 15 y 50|||562|121|1
Calorias|Dropdownlist|7||> 50|||542|120|1
Calorias|Dropdownlist|7||> 50|||542|121|1
Calorias|Dropdownlist|7||> 50|||543|120|1
Calorias|Dropdownlist|7||> 50|||543|121|1
Calorias|Dropdownlist|7||> 50|||556|120|1
Calorias|Dropdownlist|7||> 50|||556|121|1
Calorias|Dropdownlist|7||> 50|||560|120|1
Calorias|Dropdownlist|7||> 50|||560|121|1
Calorias|Dropdownlist|7||> 50|||561|120|1
Calorias|Dropdownlist|7||> 50|||561|121|1
Marcas|Dropdownlist|7||Agricultores Jims||1|540|120|2
Marcas|Dropdownlist|7||Agricultores Jims||1|540|121|2
Marcas|Dropdownlist|7||Agricultores Jims||1|553|120|2
Marcas|Dropdownlist|7||Agricultores Jims||1|553|121|2
Marcas|Dropdownlist|7||Agricultores Jims||1|558|120|2
Marcas|Dropdownlist|7||Agricultores Jims||1|558|121|2
Marcas|Dropdownlist|7||Harry & David|||541|120|2
Marcas|Dropdownlist|7||Harry & David|||541|121|2
Marcas|Dropdownlist|7||Harry & David|||543|120|2
Marcas|Dropdownlist|7||Harry & David|||543|121|2
Marcas|Dropdownlist|7||Harry & David|||561|120|2
Marcas|Dropdownlist|7||Harry & David|||561|121|2
Marcas|Dropdownlist|7||Harry & David|||562|120|2
Marcas|Dropdownlist|7||Harry & David|||562|121|2
Marcas|Dropdownlist|7||Mercado Mundial|||542|120|2
Marcas|Dropdownlist|7||Mercado Mundial|||542|121|2
Marcas|Dropdownlist|7||Mercado Mundial|||556|120|2
Marcas|Dropdownlist|7||Mercado Mundial|||556|121|2
Marcas|Dropdownlist|7||Mercado Mundial|||557|120|2
Marcas|Dropdownlist|7||Mercado Mundial|||557|121|2
Marcas|Dropdownlist|7||Smuckers|||551|120|2
Marcas|Dropdownlist|7||Smuckers|||551|121|2
Marcas|Dropdownlist|7||Smuckers|||560|120|2
Marcas|Dropdownlist|7||Smuckers|||560|121|2
Caracter?sticas especiales|Dropdownlist|7||Cultivados localmente|||540|120|3
Caracter?sticas especiales|Dropdownlist|7||Cultivados localmente|||540|121|3
Caracter?sticas especiales|Dropdownlist|7||Cultivados localmente|||553|120|3
Caracter?sticas especiales|Dropdownlist|7||Cultivados localmente|||553|121|3
Caracter?sticas especiales|Dropdownlist|7||Cultivados localmente|||558|120|3
Caracter?sticas especiales|Dropdownlist|7||Cultivados localmente|||558|121|3
Caracter?sticas especiales|Dropdownlist|7||Cultivados localmente|||561|120|3
Caracter?sticas especiales|Dropdownlist|7||Cultivados localmente|||561|121|3
Caracter?sticas especiales|Dropdownlist|7||USDA|||541|120|3
Caracter?sticas especiales|Dropdownlist|7||USDA|||541|121|3
Caracter?sticas especiales|Dropdownlist|7||USDA|||551|120|3
Caracter?sticas especiales|Dropdownlist|7||USDA|||551|121|3
Caracter?sticas especiales|Dropdownlist|7||USDA|||557|120|3
Caracter?sticas especiales|Dropdownlist|7||USDA|||557|121|3
Caracter?sticas especiales|Dropdownlist|7||USDA|||562|120|3
Caracter?sticas especiales|Dropdownlist|7||USDA|||562|121|3
Caracter?sticas especiales|Dropdownlist|7||Organico|||542|120|3
Caracter?sticas especiales|Dropdownlist|7||Organico|||542|121|3
Caracter?sticas especiales|Dropdownlist|7||Organico|||543|120|3
Caracter?sticas especiales|Dropdownlist|7||Organico|||543|121|3
Caracter?sticas especiales|Dropdownlist|7||Organico|||556|120|3
Caracter?sticas especiales|Dropdownlist|7||Organico|||556|121|3
Caracter?sticas especiales|Dropdownlist|7||Organico|||560|120|3
Caracter?sticas especiales|Dropdownlist|7||Organico|||560|121|3
Color|Dropdownlist|7||Rojo|||488|120|4
Color|Dropdownlist|7||Rojo|||488|121|4
Color|Dropdownlist|7||Rojo|||488|122|4
Color|Dropdownlist|7||Rojo|||539|120|4
Color|Dropdownlist|7||Rojo|||539|121|4
Color|Dropdownlist|7||Rojo|||539|122|4
Color|Dropdownlist|7||Rojo|||540|120|4
Color|Dropdownlist|7||Rojo|||540|121|4
Color|Dropdownlist|7||Rojo|||540|122|4
Color|Dropdownlist|7||Rojo|||545|120|4
Color|Dropdownlist|7||Rojo|||545|121|4
Color|Dropdownlist|7||Rojo|||545|122|4
Color|Dropdownlist|7||Rojo|||558|120|4
Color|Dropdownlist|7||Rojo|||558|121|4
Color|Dropdownlist|7||Rojo|||558|122|4
Color|Dropdownlist|7||Rojo|||559|120|4
Color|Dropdownlist|7||Rojo|||559|121|4
Color|Dropdownlist|7||Rojo|||559|122|4
Color|Dropdownlist|7||Rojo|||560|120|4
Color|Dropdownlist|7||Rojo|||560|121|4
Color|Dropdownlist|7||Rojo|||560|122|4
Color|Dropdownlist|7||Rojo|||561|120|4
Color|Dropdownlist|7||Rojo|||561|121|4
Color|Dropdownlist|7||Rojo|||561|122|4
Color|Dropdownlist|7||Blanco|||488|120|4
Color|Dropdownlist|7||Blanco|||488|121|4
Color|Dropdownlist|7||Blanco|||488|122|4
Color|Dropdownlist|7||Blanco|||538|120|4
Color|Dropdownlist|7||Blanco|||538|121|4
Color|Dropdownlist|7||Blanco|||538|122|4
Color|Dropdownlist|7||Blanco|||539|120|4
Color|Dropdownlist|7||Blanco|||539|121|4
Color|Dropdownlist|7||Blanco|||539|122|4
Color|Dropdownlist|7||Blanco|||545|120|4
Color|Dropdownlist|7||Blanco|||545|121|4
Color|Dropdownlist|7||Blanco|||545|122|4
Color|Dropdownlist|7||Blanco|||556|120|4
Color|Dropdownlist|7||Blanco|||556|121|4
Color|Dropdownlist|7||Blanco|||556|122|4
Color|Dropdownlist|7||Blanco|||559|120|4
Color|Dropdownlist|7||Blanco|||559|121|4
Color|Dropdownlist|7||Blanco|||559|122|4
Color|Dropdownlist|7||Marron|||553|120|4
Color|Dropdownlist|7||Marron|||553|121|4
Color|Dropdownlist|7||Marron|||553|122|4
Color|Dropdownlist|7||Marron|||557|120|4
Color|Dropdownlist|7||Marron|||557|121|4
Color|Dropdownlist|7||Marron|||557|122|4
Color|Dropdownlist|7||Verde|||542|120|4
Color|Dropdownlist|7||Verde|||542|121|4
Color|Dropdownlist|7||Verde|||542|122|4
Color|Dropdownlist|7||Verde|||560|120|4
Color|Dropdownlist|7||Verde|||560|121|4
Color|Dropdownlist|7||Verde|||560|122|4
Color|Dropdownlist|7||Verde|||562|120|4
Color|Dropdownlist|7||Verde|||562|121|4
Color|Dropdownlist|7||Verde|||562|122|4
Color|Dropdownlist|7||Negro|||558|120|4
Color|Dropdownlist|7||Negro|||558|121|4
Color|Dropdownlist|7||Negro|||558|122|4
Color|Dropdownlist|7||Negro|||558|120|4
Color|Dropdownlist|7||Negro|||558|121|4
Color|Dropdownlist|7||Negro|||558|122|4
Color|Dropdownlist|7||Rosa||2|488|120|4
Color|Dropdownlist|7||Rosa||2|488|121|4
Color|Dropdownlist|7||Rosa||2|488|122|4
Color|Dropdownlist|7||Rosa||2|538|120|4
Color|Dropdownlist|7||Rosa||2|538|121|4
Color|Dropdownlist|7||Rosa||2|538|122|4
Color|Dropdownlist|7||Rosa||2|539|120|4
Color|Dropdownlist|7||Rosa||2|539|121|4
Color|Dropdownlist|7||Rosa||2|539|122|4
Color|Dropdownlist|7||Rosa||2|544|120|4
Color|Dropdownlist|7||Rosa||2|544|121|4
Color|Dropdownlist|7||Rosa||2|544|122|4
Color|Dropdownlist|7||Rosa||2|545|120|4
Color|Dropdownlist|7||Rosa||2|545|121|4
Color|Dropdownlist|7||Rosa||2|545|122|4
Color|Dropdownlist|7||Purpura||2|539|120|4
Color|Dropdownlist|7||Purpura||2|539|121|4
Color|Dropdownlist|7||Purpura||2|539|122|4
Color|Dropdownlist|7||Purpura||2|544|120|4
Color|Dropdownlist|7||Purpura||2|544|121|4
Color|Dropdownlist|7||Purpura||2|544|122|4
Color|Dropdownlist|7||Purpura||2|545|120|4
Color|Dropdownlist|7||Purpura||2|545|121|4
Color|Dropdownlist|7||Purpura||2|545|122|4
Color|Dropdownlist|7||Purpura||2|550|120|4
Color|Dropdownlist|7||Purpura||2|550|121|4
Color|Dropdownlist|7||Purpura||2|550|122|4
Color|Dropdownlist|7||Purpura||2|552|120|4
Color|Dropdownlist|7||Purpura||2|552|121|4
Color|Dropdownlist|7||Purpura||2|552|122|4
Gama de precios|Dropdownlist|7||$ 1 - $ 10|||540|120|5
Gama de precios|Dropdownlist|7||$ 1 - $ 10|||540|121|5
Gama de precios|Dropdownlist|7||$ 1 - $ 10|||541|120|5
Gama de precios|Dropdownlist|7||$ 1 - $ 10|||541|121|5
Gama de precios|Dropdownlist|7||$ 1 - $ 10|||542|120|5
Gama de precios|Dropdownlist|7||$ 1 - $ 10|||542|121|5
Gama de precios|Dropdownlist|7||$ 1 - $ 10|||543|120|5
Gama de precios|Dropdownlist|7||$ 1 - $ 10|||543|121|5
Gama de precios|Dropdownlist|7||$ 1 - $ 10|||543|120|5
Gama de precios|Dropdownlist|7||$ 1 - $ 10|||543|121|5
Gama de precios|Dropdownlist|7||$ 1 - $ 10|||551|120|5
Gama de precios|Dropdownlist|7||$ 1 - $ 10|||551|121|5
Gama de precios|Dropdownlist|7||$ 1 - $ 10|||553|120|5
Gama de precios|Dropdownlist|7||$ 1 - $ 10|||553|121|5
Gama de precios|Dropdownlist|7||$ 1 - $ 10|||556|120|5
Gama de precios|Dropdownlist|7||$ 1 - $ 10|||556|121|5
Gama de precios|Dropdownlist|7||$ 1 - $ 10|||557|120|5
Gama de precios|Dropdownlist|7||$ 1 - $ 10|||557|121|5
Gama de precios|Dropdownlist|7||$ 1 - $ 10|||558|120|5
Gama de precios|Dropdownlist|7||$ 1 - $ 10|||558|121|5
Gama de precios|Dropdownlist|7||$ 1 - $ 10|||560|120|5
Gama de precios|Dropdownlist|7||$ 1 - $ 10|||560|121|5
Gama de precios|Dropdownlist|7||$ 1 - $ 10|||561|120|5
Gama de precios|Dropdownlist|7||$ 1 - $ 10|||561|121|5
Gama de precios|Dropdownlist|7||$ 1 - $ 10|||562|120|5
Gama de precios|Dropdownlist|7||$ 1 - $ 10|||562|121|5
Familia|Dropdownlist|7||Pimienta|||553|121|6
Familia|Dropdownlist|7||De hoja verde|||558|121|6
Familia|Dropdownlist|7||Condimento|||541|121|6
Familia|Dropdownlist|7||Almidon|||562|121|6
Familia|Dropdownlist|7||Raiz|||542|121|6
Familia|Dropdownlist|7||Haba|||560|121|6
Promotions|Dropdownlist|7||Ofertas del mes|||490|123|7
Promotions|Dropdownlist|7||Ofertas del mes|||490|126|7
Promotions|Dropdownlist|7||Ofertas del mes|||490|127|7
Promotions|Dropdownlist|7||Ofertas del mes|||490|128|7
Promotions|Dropdownlist|7||Ofertas del mes|||490|129|7
Promotions|Dropdownlist|7||Ofertas del mes|||497|123|7
Promotions|Dropdownlist|7||Ofertas del mes|||497|126|7
Promotions|Dropdownlist|7||Ofertas del mes|||497|127|7
Promotions|Dropdownlist|7||Ofertas del mes|||497|128|7
Promotions|Dropdownlist|7||Ofertas del mes|||497|129|7
Promotions|Dropdownlist|7||Ofertas del mes|||507|123|7
Promotions|Dropdownlist|7||Ofertas del mes|||507|126|7
Promotions|Dropdownlist|7||Ofertas del mes|||507|127|7
Promotions|Dropdownlist|7||Ofertas del mes|||507|128|7
Promotions|Dropdownlist|7||Ofertas del mes|||507|129|7
Promotions|Dropdownlist|7||Ofertas del mes|||514|123|7
Promotions|Dropdownlist|7||Ofertas del mes|||514|126|7
Promotions|Dropdownlist|7||Ofertas del mes|||514|127|7
Promotions|Dropdownlist|7||Ofertas del mes|||514|128|7
Promotions|Dropdownlist|7||Ofertas del mes|||514|129|7
Promotions|Dropdownlist|7||Ofertas del mes|||517|123|7
Promotions|Dropdownlist|7||Ofertas del mes|||517|126|7
Promotions|Dropdownlist|7||Ofertas del mes|||517|127|7
Promotions|Dropdownlist|7||Ofertas del mes|||517|128|7
Promotions|Dropdownlist|7||Ofertas del mes|||517|129|7
Promotions|Dropdownlist|7||Ofertas del mes|||524|123|7
Promotions|Dropdownlist|7||Ofertas del mes|||524|126|7
Promotions|Dropdownlist|7||Ofertas del mes|||524|127|7
Promotions|Dropdownlist|7||Ofertas del mes|||524|128|7
Promotions|Dropdownlist|7||Ofertas del mes|||524|129|7
Promotions|Dropdownlist|7||Ofertas del mes|||544|123|7
Promotions|Dropdownlist|7||Ofertas del mes|||544|126|7
Promotions|Dropdownlist|7||Ofertas del mes|||544|127|7
Promotions|Dropdownlist|7||Ofertas del mes|||544|128|7
Promotions|Dropdownlist|7||Ofertas del mes|||544|129|7
Promotions|Dropdownlist|7||Ofertas del mes|||548|123|7
Promotions|Dropdownlist|7||Ofertas del mes|||548|126|7
Promotions|Dropdownlist|7||Ofertas del mes|||548|127|7
Promotions|Dropdownlist|7||Ofertas del mes|||548|128|7
Promotions|Dropdownlist|7||Ofertas del mes|||548|129|7
Promotions|Dropdownlist|7||Ofertas del mes|||550|123|7
Promotions|Dropdownlist|7||Ofertas del mes|||550|126|7
Promotions|Dropdownlist|7||Ofertas del mes|||550|127|7
Promotions|Dropdownlist|7||Ofertas del mes|||550|128|7
Promotions|Dropdownlist|7||Ofertas del mes|||550|129|7
Promotions|Dropdownlist|7||Ofertas del mes|||552|123|7
Promotions|Dropdownlist|7||Ofertas del mes|||552|126|7
Promotions|Dropdownlist|7||Ofertas del mes|||552|127|7
Promotions|Dropdownlist|7||Ofertas del mes|||552|128|7
Promotions|Dropdownlist|7||Ofertas del mes|||552|129|7
Promotions|Dropdownlist|7||Vinos Especiales|||487|123|7
Promotions|Dropdownlist|7||Vinos Especiales|||487|126|7
Promotions|Dropdownlist|7||Vinos Especiales|||487|127|7
Promotions|Dropdownlist|7||Vinos Especiales|||487|128|7
Promotions|Dropdownlist|7||Vinos Especiales|||487|129|7
Promotions|Dropdownlist|7||Vinos Especiales|||490|123|7
Promotions|Dropdownlist|7||Vinos Especiales|||490|126|7
Promotions|Dropdownlist|7||Vinos Especiales|||490|127|7
Promotions|Dropdownlist|7||Vinos Especiales|||490|128|7
Promotions|Dropdownlist|7||Vinos Especiales|||490|129|7
Promotions|Dropdownlist|7||Vinos Especiales|||492|123|7
Promotions|Dropdownlist|7||Vinos Especiales|||492|126|7
Promotions|Dropdownlist|7||Vinos Especiales|||492|127|7
Promotions|Dropdownlist|7||Vinos Especiales|||492|128|7
Promotions|Dropdownlist|7||Vinos Especiales|||492|129|7
Promotions|Dropdownlist|7||Vinos Especiales|||493|123|7
Promotions|Dropdownlist|7||Vinos Especiales|||493|126|7
Promotions|Dropdownlist|7||Vinos Especiales|||493|127|7
Promotions|Dropdownlist|7||Vinos Especiales|||493|128|7
Promotions|Dropdownlist|7||Vinos Especiales|||493|129|7
Promotions|Dropdownlist|7||Vinos Especiales|||495|123|7
Promotions|Dropdownlist|7||Vinos Especiales|||495|126|7
Promotions|Dropdownlist|7||Vinos Especiales|||495|127|7
Promotions|Dropdownlist|7||Vinos Especiales|||495|128|7
Promotions|Dropdownlist|7||Vinos Especiales|||495|129|7
Promotions|Dropdownlist|7||Vinos Especiales|||512|123|7
Promotions|Dropdownlist|7||Vinos Especiales|||512|126|7
Promotions|Dropdownlist|7||Vinos Especiales|||512|127|7
Promotions|Dropdownlist|7||Vinos Especiales|||512|128|7
Promotions|Dropdownlist|7||Vinos Especiales|||512|129|7
Promotions|Dropdownlist|7||Vinos Especiales|||519|123|7
Promotions|Dropdownlist|7||Vinos Especiales|||519|126|7
Promotions|Dropdownlist|7||Vinos Especiales|||519|127|7
Promotions|Dropdownlist|7||Vinos Especiales|||519|128|7
Promotions|Dropdownlist|7||Vinos Especiales|||519|129|7
Promotions|Dropdownlist|7||Vinos Especiales|||520|123|7
Promotions|Dropdownlist|7||Vinos Especiales|||520|126|7
Promotions|Dropdownlist|7||Vinos Especiales|||520|127|7
Promotions|Dropdownlist|7||Vinos Especiales|||520|128|7
Promotions|Dropdownlist|7||Vinos Especiales|||520|129|7
Promotions|Dropdownlist|7||Vinos Especiales|||522|123|7
Promotions|Dropdownlist|7||Vinos Especiales|||522|126|7
Promotions|Dropdownlist|7||Vinos Especiales|||522|127|7
Promotions|Dropdownlist|7||Vinos Especiales|||522|128|7
Promotions|Dropdownlist|7||Vinos Especiales|||522|129|7
Promotions|Dropdownlist|7||Vinos Especiales|||556|123|7
Promotions|Dropdownlist|7||Vinos Especiales|||556|126|7
Promotions|Dropdownlist|7||Vinos Especiales|||556|127|7
Promotions|Dropdownlist|7||Vinos Especiales|||556|128|7
Promotions|Dropdownlist|7||Vinos Especiales|||556|129|7
Promotions|Dropdownlist|7||Ofertas de Productos Organicos|||489|123|7
Promotions|Dropdownlist|7||Ofertas de Productos Organicos|||489|126|7
Promotions|Dropdownlist|7||Ofertas de Productos Organicos|||489|127|7
Promotions|Dropdownlist|7||Ofertas de Productos Organicos|||489|128|7
Promotions|Dropdownlist|7||Ofertas de Productos Organicos|||489|129|7
Promotions|Dropdownlist|7||Ofertas de Productos Organicos|||496|123|7
Promotions|Dropdownlist|7||Ofertas de Productos Organicos|||496|126|7
Promotions|Dropdownlist|7||Ofertas de Productos Organicos|||496|127|7
Promotions|Dropdownlist|7||Ofertas de Productos Organicos|||496|128|7
Promotions|Dropdownlist|7||Ofertas de Productos Organicos|||496|129|7
Promotions|Dropdownlist|7||Ofertas de Productos Organicos|||502|123|7
Promotions|Dropdownlist|7||Ofertas de Productos Organicos|||502|126|7
Promotions|Dropdownlist|7||Ofertas de Productos Organicos|||502|127|7
Promotions|Dropdownlist|7||Ofertas de Productos Organicos|||502|128|7
Promotions|Dropdownlist|7||Ofertas de Productos Organicos|||502|129|7
Promotions|Dropdownlist|7||Ofertas de Productos Organicos|||505|123|7
Promotions|Dropdownlist|7||Ofertas de Productos Organicos|||505|126|7
Promotions|Dropdownlist|7||Ofertas de Productos Organicos|||505|127|7
Promotions|Dropdownlist|7||Ofertas de Productos Organicos|||505|128|7
Promotions|Dropdownlist|7||Ofertas de Productos Organicos|||505|129|7
Promotions|Dropdownlist|7||Ofertas de Productos Organicos|||506|123|7
Promotions|Dropdownlist|7||Ofertas de Productos Organicos|||506|126|7
Promotions|Dropdownlist|7||Ofertas de Productos Organicos|||506|127|7
Promotions|Dropdownlist|7||Ofertas de Productos Organicos|||506|128|7
Promotions|Dropdownlist|7||Ofertas de Productos Organicos|||506|129|7
Promotions|Dropdownlist|7||Ofertas de Productos Organicos|||541|123|7
Promotions|Dropdownlist|7||Ofertas de Productos Organicos|||541|126|7
Promotions|Dropdownlist|7||Ofertas de Productos Organicos|||541|127|7
Promotions|Dropdownlist|7||Ofertas de Productos Organicos|||541|128|7
Promotions|Dropdownlist|7||Ofertas de Productos Organicos|||541|129|7
Promotions|Dropdownlist|7||Ofertas de Productos Organicos|||547|123|7
Promotions|Dropdownlist|7||Ofertas de Productos Organicos|||547|126|7
Promotions|Dropdownlist|7||Ofertas de Productos Organicos|||547|127|7
Promotions|Dropdownlist|7||Ofertas de Productos Organicos|||547|128|7
Promotions|Dropdownlist|7||Ofertas de Productos Organicos|||547|129|7
Promotions|Dropdownlist|7||Ofertas de Productos Organicos|||554|123|7
Promotions|Dropdownlist|7||Ofertas de Productos Organicos|||554|126|7
Promotions|Dropdownlist|7||Ofertas de Productos Organicos|||554|127|7
Promotions|Dropdownlist|7||Ofertas de Productos Organicos|||554|128|7
Promotions|Dropdownlist|7||Ofertas de Productos Organicos|||554|129|7
Promotions|Dropdownlist|7||Ofertas de Productos Organicos|||555|123|7
Promotions|Dropdownlist|7||Ofertas de Productos Organicos|||555|126|7
Promotions|Dropdownlist|7||Ofertas de Productos Organicos|||555|127|7
Promotions|Dropdownlist|7||Ofertas de Productos Organicos|||555|128|7
Promotions|Dropdownlist|7||Ofertas de Productos Organicos|||555|129|7
Fort|Dropdownlist|7||Extra Fuerte||1|514|128|8
Fort|Dropdownlist|7||Ligeramente Fuerte||2|516|128|8
Fort|Dropdownlist|7||Ligeramente Fuerte||2|519|128|8
Fort|Dropdownlist|7||Ligeramente Fuerte||2|523|128|8
Fort|Dropdownlist|7||Ligeramente Fuerte||2|524|128|8
Leve|Dropdownlist|7||Blanco||1|490|128|9
Leve|Dropdownlist|7||Blanco||1|516|128|9
Leve|Dropdownlist|7||Blanco||1|518|128|9
Leve|Dropdownlist|7||Blanco||1|521|128|9
Leve|Dropdownlist|7||Blanco||1|522|128|9
Leve|Dropdownlist|7||Amarillo||2|517|128|9
Leve|Dropdownlist|7||Amarillo||2|520|128|9
Color de la uva|Dropdownlist|7||Rojo||1|487|129|10
Color de la uva|Dropdownlist|7||Rojo||1|491|129|10
Color de la uva|Dropdownlist|7||Rojo||1|493|129|10
Color de la uva|Dropdownlist|7||Rojo||1|494|129|10
Color de la uva|Dropdownlist|7||Rojo||1|512|129|10
Color de la uva|Dropdownlist|7||Blanco||2|492|129|10
Color de la uva|Dropdownlist|7||Blanco||2|508|129|10
Color de la uva|Dropdownlist|7||Blanco||2|509|129|10
Color de la uva|Dropdownlist|7||Blanco||2|510|129|10
Color de la uva|Dropdownlist|7||Blanco||2|511|129|10
Color de la uva|Dropdownlist|7||Blanco||2|513|129|10
Color de la uva|Dropdownlist|7||Rosa||3|487|129|10
Color de la uva|Dropdownlist|7||Rosa||3|494|129|10
Color de la uva|Dropdownlist|7||Rosa||3|495|129|10
Temporada|Dropdownlist|7||Anual||1|539|122|11
Temporada|Dropdownlist|7||Bi-anual||2|538|122|11
Temporada|Dropdownlist|7||Periannual||3|488|122|11
Sin cascara|Dropdownlist|7||Si||1|498|127|12
Sin cascara|Dropdownlist|7||Si||1|500|127|12
Sin cascara|Dropdownlist|7||Si||1|501|127|12
Sin cascara|Dropdownlist|7||Si||1|502|127|12
Sin cascara|Dropdownlist|7||Si||1|506|127|12
Sin cascara|Dropdownlist|7||Si||1|507|127|12
Sin cascara|Dropdownlist|7||No||2|496|127|12
Sin cascara|Dropdownlist|7||No||2|497|127|12
Sin cascara|Dropdownlist|7||No||2|499|127|12
Sin cascara|Dropdownlist|7||No||2|503|127|12
Sin cascara|Dropdownlist|7||No||2|504|127|12
Salado|Dropdownlist|7||Si||1|489|127|13
Salado|Dropdownlist|7||Si||1|498|127|13
Salado|Dropdownlist|7||Si||1|500|127|13
Salado|Dropdownlist|7||Si||1|502|127|13
Salado|Dropdownlist|7||Si||1|504|127|13
Salado|Dropdownlist|7||Si||1|507|127|13
Salado|Dropdownlist|7||No||2|503|127|13
